projectV5/dump.vcd
$date
	Sun May 07 16:34:29 2023
$end
$version
	Icarus Verilog
$end
$timescale
	1s
$end
$scope module testmyRom $end
$var wire 8 ! data_out [7:0] $end
$var reg 6 " address [5:0] $end
$var reg 1 # ce $end
$scope module CUT $end
$var wire 6 $ address [5:0] $end
$var wire 1 % char_enable $end
$var wire 8 & data_out [7:0] $end
$upscope $end
$upscope $end
$enddefinitions $end
#0
$dumpvars
bx &
x%
bx $
x#
bx "
bx !
$end
#10
bz !
bz &
0#
0%
#20
bx !
bx &
1#
1%
#30
b11111111 !
b11111111 &
b0 "
b0 $
#100
bz !
bz &
0#
0%
#200
b11111111 !
b11111111 &
1#
1%
#300
bz !
bz &
0#
0%
#400
b11111111 !
b11111111 &
1#
1%
#500
bz !
bz &
0#
0%
#600
b11111111 !
b11111111 &
1#
1%
#700
bz !
bz &
0#
0%
#800
b11111111 !
b11111111 &
1#
1%
#900
bz !
bz &
0#
0%
#1000
b11111111 !
b11111111 &
1#
1%
#1100
bz !
bz &
0#
0%
#1200
b11111111 !
b11111111 &
1#
1%
#1300
bz !
bz &
0#
0%
#1400
b11111111 !
b11111111 &
1#
1%
#1500
bz !
bz &
0#
0%
#1600
b11111111 !
b11111111 &
1#
1%
#1700
bz !
bz &
0#
0%
#1800
b11111111 !
b11111111 &
1#
1%
#1900
bz !
bz &
0#
0%
#2000
b11111111 !
b11111111 &
1#
1%
#2100
bz !
bz &
0#
0%
#2200
b11111111 !
b11111111 &
1#
1%
#2300
bz !
bz &
0#
0%
#2400
b11111111 !
b11111111 &
1#
1%
#2500
bz !
bz &
0#
0%
#2600
b11111111 !
b11111111 &
1#
1%
#2700
bz !
bz &
0#
0%
#2800
b11111111 !
b11111111 &
1#
1%
#2900
bz !
bz &
0#
0%
#3000
b11111111 !
b11111111 &
1#
1%
#3100
bz !
bz &
0#
0%
#3200
b11111111 !
b11111111 &
1#
1%
#3300
bz !
bz &
0#
0%
#3400
b11111111 !
b11111111 &
1#
1%
#3500
bz !
bz &
0#
0%
#3600
b11111111 !
b11111111 &
1#
1%
#3700
bz !
bz &
0#
0%
#3800
b11111111 !
b11111111 &
1#
1%
#3900
bz !
bz &
0#
0%
#4000
b11111111 !
b11111111 &
1#
1%
#4100
bz !
bz &
0#
0%
#4200
b11111111 !
b11111111 &
1#
1%
#4300
bz !
bz &
0#
0%
#4400
b11111111 !
b11111111 &
1#
1%
#4500
bz !
bz &
0#
0%
#4600
b11111111 !
b11111111 &
1#
1%
#4700
bz !
bz &
0#
0%
#4800
b11111111 !
b11111111 &
1#
1%
#4900
bz !
bz &
0#
0%
#5000
b11111111 !
b11111111 &
1#
1%
#5100
bz !
bz &
0#
0%
#5200
b11111111 !
b11111111 &
1#
1%
#5300
bz !
bz &
0#
0%
#5400
b11111111 !
b11111111 &
1#
1%
#5500
bz !
bz &
0#
0%
#5600
b11111111 !
b11111111 &
1#
1%
#5700
bz !
bz &
0#
0%
#5800
b11111111 !
b11111111 &
1#
1%
#5900
bz !
bz &
0#
0%
#6000
b11111111 !
b11111111 &
1#
1%
#6100
bz !
bz &
0#
0%
#6200
b11111111 !
b11111111 &
1#
1%
#6300
bz !
bz &
0#
0%
#6400
b11111111 !
b11111111 &
1#
1%
#6500
bz !
bz &
0#
0%
#6600
b11111111 !
b11111111 &
1#
1%
#6700
bz !
bz &
0#
0%
#6800
b11111111 !
b11111111 &
1#
1%
#6900
bz !
bz &
0#
0%
#7000
b11111111 !
b11111111 &
1#
1%
#7100
bz !
bz &
0#
0%
#7200
b11111111 !
b11111111 &
1#
1%
#7300
bz !
bz &
0#
0%
#7400
b11111111 !
b11111111 &
1#
1%
#7500
bz !
bz &
0#
0%
#7600
b11111111 !
b11111111 &
1#
1%
#7700
bz !
bz &
0#
0%
#7800
b11111111 !
b11111111 &
1#
1%
#7900
bz !
bz &
0#
0%
#8000
b11111111 !
b11111111 &
1#
1%
#8100
bz !
bz &
0#
0%
#8200
b11111111 !
b11111111 &
1#
1%
#8300
bz !
bz &
0#
0%
#8400
b11111111 !
b11111111 &
1#
1%
#8500
bz !
bz &
0#
0%
#8600
b11111111 !
b11111111 &
1#
1%
#8700
bz !
bz &
0#
0%
#8800
b11111111 !
b11111111 &
1#
1%
#8900
bz !
bz &
0#
0%
#9000
b11111111 !
b11111111 &
1#
1%
#9100
bz !
bz &
0#
0%
#9200
b11111111 !
b11111111 &
1#
1%
#9300
bz !
bz &
0#
0%
#9400
b11111111 !
b11111111 &
1#
1%
#9500
bz !
bz &
0#
0%
#9600
b11111111 !
b11111111 &
1#
1%
#9700
bz !
bz &
0#
0%
#9800
b11111111 !
b11111111 &
1#
1%
#9900
bz !
bz &
0#
0%
#10000
b11111111 !
b11111111 &
1#
1%
#10100
bz !
bz &
0#
0%
#10200
b11111111 !
b11111111 &
1#
1%
#10300
bz !
bz &
0#
0%
#10400
b11111111 !
b11111111 &
1#
1%
#10500
bz !
bz &
0#
0%
#10600
b11111111 !
b11111111 &
1#
1%
#10700
bz !
bz &
0#
0%
#10800
b11111111 !
b11111111 &
1#
1%
#10900
bz !
bz &
0#
0%
#11000
b11111111 !
b11111111 &
1#
1%
#11100
bz !
bz &
0#
0%
#11200
b11111111 !
b11111111 &
1#
1%
#11300
bz !
bz &
0#
0%
#11400
b11111111 !
b11111111 &
1#
1%
#11500
bz !
bz &
0#
0%
#11600
b11111111 !
b11111111 &
1#
1%
#11700
bz !
bz &
0#
0%
#11800
b11111111 !
b11111111 &
1#
1%
#11900
bz !
bz &
0#
0%
#12000
b11111111 !
b11111111 &
1#
1%
#12100
bz !
bz &
0#
0%
#12200
b11111111 !
b11111111 &
1#
1%
#12300
bz !
bz &
0#
0%
#12400
b11111111 !
b11111111 &
1#
1%
#12500
bz !
bz &
0#
0%
#12600
b11111111 !
b11111111 &
1#
1%
#12700
bz !
bz &
0#
0%
#12800
b11111111 !
b11111111 &
1#
1%
#12900
bz !
bz &
0#
0%
#13000
b11111111 !
b11111111 &
1#
1%
#13100
bz !
bz &
0#
0%
#13200
b11111111 !
b11111111 &
1#
1%
#13300
bz !
bz &
0#
0%
#13400
b11111111 !
b11111111 &
1#
1%
#13500
bz !
bz &
0#
0%
#13600
b11111111 !
b11111111 &
1#
1%
#13700
bz !
bz &
0#
0%
#13800
b11111111 !
b11111111 &
1#
1%
#13900
bz !
bz &
0#
0%
#14000
b11111111 !
b11111111 &
1#
1%
#14100
bz !
bz &
0#
0%
#14200
b11111111 !
b11111111 &
1#
1%
#14300
bz !
bz &
0#
0%
#14400
b11111111 !
b11111111 &
1#
1%
#14500
bz !
bz &
0#
0%
#14600
b11111111 !
b11111111 &
1#
1%
#14700
bz !
bz &
0#
0%
#14800
b11111111 !
b11111111 &
1#
1%
#14900
bz !
bz &
0#
0%
#15000
b11111111 !
b11111111 &
1#
1%
#15100
bz !
bz &
0#
0%
#15200
b11111111 !
b11111111 &
1#
1%
#15300
bz !
bz &
0#
0%
#15400
b11111111 !
b11111111 &
1#
1%
#15500
bz !
bz &
0#
0%
#15600
b11111111 !
b11111111 &
1#
1%
#15700
bz !
bz &
0#
0%
#15800
b11111111 !
b11111111 &
1#
1%
#15900
bz !
bz &
0#
0%
#16000
b11111111 !
b11111111 &
1#
1%
#16100
bz !
bz &
0#
0%
#16200
b11111111 !
b11111111 &
1#
1%
#16300
bz !
bz &
0#
0%
#16400
b11111111 !
b11111111 &
1#
1%
#16500
bz !
bz &
0#
0%
#16600
b11111111 !
b11111111 &
1#
1%
#16700
bz !
bz &
0#
0%
#16800
b11111111 !
b11111111 &
1#
1%
#16900
bz !
bz &
0#
0%
#17000
b11111111 !
b11111111 &
1#
1%
#17100
bz !
bz &
0#
0%
#17200
b11111111 !
b11111111 &
1#
1%
#17300
bz !
bz &
0#
0%
#17400
b11111111 !
b11111111 &
1#
1%
#17500
bz !
bz &
0#
0%
#17600
b11111111 !
b11111111 &
1#
1%
#17700
bz !
bz &
0#
0%
#17800
b11111111 !
b11111111 &
1#
1%
#17900
bz !
bz &
0#
0%
#18000
b11111111 !
b11111111 &
1#
1%
#18100
bz !
bz &
0#
0%
#18200
b11111111 !
b11111111 &
1#
1%
#18300
bz !
bz &
0#
0%
#18400
b11111111 !
b11111111 &
1#
1%
#18500
bz !
bz &
0#
0%
#18600
b11111111 !
b11111111 &
1#
1%
#18700
bz !
bz &
0#
0%
#18800
b11111111 !
b11111111 &
1#
1%
#18900
bz !
bz &
0#
0%
#19000
b11111111 !
b11111111 &
1#
1%
#19100
bz !
bz &
0#
0%
#19200
b11111111 !
b11111111 &
1#
1%
#19300
bz !
bz &
0#
0%
#19400
b11111111 !
b11111111 &
1#
1%
#19500
bz !
bz &
0#
0%
#19600
b11111111 !
b11111111 &
1#
1%
#19700
bz !
bz &
0#
0%
#19800
b11111111 !
b11111111 &
1#
1%
#19900
bz !
bz &
0#
0%
#20000
b11111111 !
b11111111 &
1#
1%
#20100
bz !
bz &
0#
0%
#20200
b11111111 !
b11111111 &
1#
1%
#20300
bz !
bz &
0#
0%
#20400
b11111111 !
b11111111 &
1#
1%
#20500
bz !
bz &
0#
0%
#20600
b11111111 !
b11111111 &
1#
1%
#20700
bz !
bz &
0#
0%
#20800
b11111111 !
b11111111 &
1#
1%
#20900
bz !
bz &
0#
0%
#21000
b11111111 !
b11111111 &
1#
1%
#21100
bz !
bz &
0#
0%
#21200
b11111111 !
b11111111 &
1#
1%
#21300
bz !
bz &
0#
0%
#21400
b11111111 !
b11111111 &
1#
1%
#21500
bz !
bz &
0#
0%
#21600
b11111111 !
b11111111 &
1#
1%
#21700
bz !
bz &
0#
0%
#21800
b11111111 !
b11111111 &
1#
1%
#21900
bz !
bz &
0#
0%
#22000
b11111111 !
b11111111 &
1#
1%
#22100
bz !
bz &
0#
0%
#22200
b11111111 !
b11111111 &
1#
1%
#22300
bz !
bz &
0#
0%
#22400
b11111111 !
b11111111 &
1#
1%
#22500
bz !
bz &
0#
0%
#22600
b11111111 !
b11111111 &
1#
1%
#22700
bz !
bz &
0#
0%
#22800
b11111111 !
b11111111 &
1#
1%
#22900
bz !
bz &
0#
0%
#23000
b11111111 !
b11111111 &
1#
1%
#23100
bz !
bz &
0#
0%
#23200
b11111111 !
b11111111 &
1#
1%
#23300
bz !
bz &
0#
0%
#23400
b11111111 !
b11111111 &
1#
1%
#23500
bz !
bz &
0#
0%
#23600
b11111111 !
b11111111 &
1#
1%
#23700
bz !
bz &
0#
0%
#23800
b11111111 !
b11111111 &
1#
1%
#23900
bz !
bz &
0#
0%
#24000
b11111111 !
b11111111 &
1#
1%
#24100
bz !
bz &
0#
0%
#24200
b11111111 !
b11111111 &
1#
1%
#24300
bz !
bz &
0#
0%
#24400
b11111111 !
b11111111 &
1#
1%
#24500
bz !
bz &
0#
0%
#24600
b11111111 !
b11111111 &
1#
1%
#24700
bz !
bz &
0#
0%
#24800
b11111111 !
b11111111 &
1#
1%
#24900
bz !
bz &
0#
0%
#25000
b11111111 !
b11111111 &
1#
1%
#25100
bz !
bz &
0#
0%
#25200
b11111111 !
b11111111 &
1#
1%
#25300
bz !
bz &
0#
0%
#25400
b11111111 !
b11111111 &
1#
1%
#25500
bz !
bz &
0#
0%
#25600
b11111111 !
b11111111 &
1#
1%
#25700
bz !
bz &
0#
0%
#25800
b11111111 !
b11111111 &
1#
1%
#25900
bz !
bz &
0#
0%
#26000
b11111111 !
b11111111 &
1#
1%
#26100
bz !
bz &
0#
0%
#26200
b11111111 !
b11111111 &
1#
1%
#26300
bz !
bz &
0#
0%
#26400
b11111111 !
b11111111 &
1#
1%
#26500
bz !
bz &
0#
0%
#26600
b11111111 !
b11111111 &
1#
1%
#26700
bz !
bz &
0#
0%
#26800
b11111111 !
b11111111 &
1#
1%
#26900
bz !
bz &
0#
0%
#27000
b11111111 !
b11111111 &
1#
1%
#27100
bz !
bz &
0#
0%
#27200
b11111111 !
b11111111 &
1#
1%
#27300
bz !
bz &
0#
0%
#27400
b11111111 !
b11111111 &
1#
1%
#27500
bz !
bz &
0#
0%
#27600
b11111111 !
b11111111 &
1#
1%
#27700
bz !
bz &
0#
0%
#27800
b11111111 !
b11111111 &
1#
1%
#27900
bz !
bz &
0#
0%
#28000
b11111111 !
b11111111 &
1#
1%
#28100
bz !
bz &
0#
0%
#28200
b11111111 !
b11111111 &
1#
1%
#28300
bz !
bz &
0#
0%
#28400
b11111111 !
b11111111 &
1#
1%
#28500
bz !
bz &
0#
0%
#28600
b11111111 !
b11111111 &
1#
1%
#28700
bz !
bz &
0#
0%
#28800
b11111111 !
b11111111 &
1#
1%
#28900
bz !
bz &
0#
0%
#29000
b11111111 !
b11111111 &
1#
1%
#29100
bz !
bz &
0#
0%
#29200
b11111111 !
b11111111 &
1#
1%
#29300
bz !
bz &
0#
0%
#29400
b11111111 !
b11111111 &
1#
1%
#29500
bz !
bz &
0#
0%
#29600
b11111111 !
b11111111 &
1#
1%
#29700
bz !
bz &
0#
0%
#29800
b11111111 !
b11111111 &
1#
1%
#29900
bz !
bz &
0#
0%
#30000
b11111111 !
b11111111 &
1#
1%
#30100
bz !
bz &
0#
0%
#30200
b11111111 !
b11111111 &
1#
1%
#30300
bz !
bz &
0#
0%
#30400
b11111111 !
b11111111 &
1#
1%
#30500
bz !
bz &
0#
0%
#30600
b11111111 !
b11111111 &
1#
1%
#30700
bz !
bz &
0#
0%
#30800
b11111111 !
b11111111 &
1#
1%
#30900
bz !
bz &
0#
0%
#31000
b11111111 !
b11111111 &
1#
1%
#31100
bz !
bz &
0#
0%
#31200
b11111111 !
b11111111 &
1#
1%
#31300
bz !
bz &
0#
0%
#31400
b11111111 !
b11111111 &
1#
1%
#31500
bz !
bz &
0#
0%
#31600
b11111111 !
b11111111 &
1#
1%
#31700
bz !
bz &
0#
0%
#31800
b11111111 !
b11111111 &
1#
1%
#31900
bz !
bz &
0#
0%
#32000
b11111111 !
b11111111 &
1#
1%
#32100
bz !
bz &
0#
0%
#32200
b11111111 !
b11111111 &
1#
1%
#32300
bz !
bz &
0#
0%
#32400
b11111111 !
b11111111 &
1#
1%
#32500
bz !
bz &
0#
0%
#32600
b11111111 !
b11111111 &
1#
1%
#32700
bz !
bz &
0#
0%
#32800
b11111111 !
b11111111 &
1#
1%
#32900
bz !
bz &
0#
0%
#33000
b11111111 !
b11111111 &
1#
1%
#33100
bz !
bz &
0#
0%
#33200
b11111111 !
b11111111 &
1#
1%
#33300
bz !
bz &
0#
0%
#33400
b11111111 !
b11111111 &
1#
1%
#33500
bz !
bz &
0#
0%
#33600
b11111111 !
b11111111 &
1#
1%
#33700
bz !
bz &
0#
0%
#33800
b11111111 !
b11111111 &
1#
1%
#33900
bz !
bz &
0#
0%
#34000
b11111111 !
b11111111 &
1#
1%
#34100
bz !
bz &
0#
0%
#34200
b11111111 !
b11111111 &
1#
1%
#34300
bz !
bz &
0#
0%
#34400
b11111111 !
b11111111 &
1#
1%
#34500
bz !
bz &
0#
0%
#34600
b11111111 !
b11111111 &
1#
1%
#34700
bz !
bz &
0#
0%
#34800
b11111111 !
b11111111 &
1#
1%
#34900
bz !
bz &
0#
0%
#35000
b11111111 !
b11111111 &
1#
1%
#35100
bz !
bz &
0#
0%
#35200
b11111111 !
b11111111 &
1#
1%
#35300
bz !
bz &
0#
0%
#35400
b11111111 !
b11111111 &
1#
1%
#35500
bz !
bz &
0#
0%
#35600
b11111111 !
b11111111 &
1#
1%
#35700
bz !
bz &
0#
0%
#35800
b11111111 !
b11111111 &
1#
1%
#35900
bz !
bz &
0#
0%
#36000
b11111111 !
b11111111 &
1#
1%
#36100
bz !
bz &
0#
0%
#36200
b11111111 !
b11111111 &
1#
1%
#36300
bz !
bz &
0#
0%
#36400
b11111111 !
b11111111 &
1#
1%
#36500
bz !
bz &
0#
0%
#36600
b11111111 !
b11111111 &
1#
1%
#36700
bz !
bz &
0#
0%
#36800
b11111111 !
b11111111 &
1#
1%
#36900
bz !
bz &
0#
0%
#37000
b11111111 !
b11111111 &
1#
1%
#37100
bz !
bz &
0#
0%
#37200
b11111111 !
b11111111 &
1#
1%
#37300
bz !
bz &
0#
0%
#37400
b11111111 !
b11111111 &
1#
1%
#37500
bz !
bz &
0#
0%
#37600
b11111111 !
b11111111 &
1#
1%
#37700
bz !
bz &
0#
0%
#37800
b11111111 !
b11111111 &
1#
1%
#37900
bz !
bz &
0#
0%
#38000
b11111111 !
b11111111 &
1#
1%
#38100
bz !
bz &
0#
0%
#38200
b11111111 !
b11111111 &
1#
1%
#38300
bz !
bz &
0#
0%
#38400
b11111111 !
b11111111 &
1#
1%
#38500
bz !
bz &
0#
0%
#38600
b11111111 !
b11111111 &
1#
1%
#38700
bz !
bz &
0#
0%
#38800
b11111111 !
b11111111 &
1#
1%
#38900
bz !
bz &
0#
0%
#39000
b11111111 !
b11111111 &
1#
1%
#39100
bz !
bz &
0#
0%
#39200
b11111111 !
b11111111 &
1#
1%
#39300
bz !
bz &
0#
0%
#39400
b11111111 !
b11111111 &
1#
1%
#39500
bz !
bz &
0#
0%
#39600
b11111111 !
b11111111 &
1#
1%
#39700
bz !
bz &
0#
0%
#39800
b11111111 !
b11111111 &
1#
1%
#39900
bz !
bz &
0#
0%
#40000
b11111111 !
b11111111 &
1#
1%
#40100
bz !
bz &
0#
0%
#40200
b11111111 !
b11111111 &
1#
1%
#40300
bz !
bz &
0#
0%
#40400
b11111111 !
b11111111 &
1#
1%
#40500
bz !
bz &
0#
0%
#40600
b11111111 !
b11111111 &
1#
1%
#40700
bz !
bz &
0#
0%
#40800
b11111111 !
b11111111 &
1#
1%
#40900
bz !
bz &
0#
0%
#41000
b11111111 !
b11111111 &
1#
1%
#41100
bz !
bz &
0#
0%
#41200
b11111111 !
b11111111 &
1#
1%
#41300
bz !
bz &
0#
0%
#41400
b11111111 !
b11111111 &
1#
1%
#41500
bz !
bz &
0#
0%
#41600
b11111111 !
b11111111 &
1#
1%
#41700
bz !
bz &
0#
0%
#41800
b11111111 !
b11111111 &
1#
1%
#41900
bz !
bz &
0#
0%
#42000
b11111111 !
b11111111 &
1#
1%
#42100
bz !
bz &
0#
0%
#42200
b11111111 !
b11111111 &
1#
1%
#42300
bz !
bz &
0#
0%
#42400
b11111111 !
b11111111 &
1#
1%
#42500
bz !
bz &
0#
0%
#42600
b11111111 !
b11111111 &
1#
1%
#42700
bz !
bz &
0#
0%
#42800
b11111111 !
b11111111 &
1#
1%
#42900
bz !
bz &
0#
0%
#43000
b11111111 !
b11111111 &
1#
1%
#43100
bz !
bz &
0#
0%
#43200
b11111111 !
b11111111 &
1#
1%
#43300
bz !
bz &
0#
0%
#43400
b11111111 !
b11111111 &
1#
1%
#43500
bz !
bz &
0#
0%
#43600
b11111111 !
b11111111 &
1#
1%
#43700
bz !
bz &
0#
0%
#43800
b11111111 !
b11111111 &
1#
1%
#43900
bz !
bz &
0#
0%
#44000
b11111111 !
b11111111 &
1#
1%
#44100
bz !
bz &
0#
0%
#44200
b11111111 !
b11111111 &
1#
1%
#44300
bz !
bz &
0#
0%
#44400
b11111111 !
b11111111 &
1#
1%
#44500
bz !
bz &
0#
0%
#44600
b11111111 !
b11111111 &
1#
1%
#44700
bz !
bz &
0#
0%
#44800
b11111111 !
b11111111 &
1#
1%
#44900
bz !
bz &
0#
0%
#45000
b11111111 !
b11111111 &
1#
1%
#45100
bz !
bz &
0#
0%
#45200
b11111111 !
b11111111 &
1#
1%
#45300
bz !
bz &
0#
0%
#45400
b11111111 !
b11111111 &
1#
1%
#45500
bz !
bz &
0#
0%
#45600
b11111111 !
b11111111 &
1#
1%
#45700
bz !
bz &
0#
0%
#45800
b11111111 !
b11111111 &
1#
1%
#45900
bz !
bz &
0#
0%
#46000
b11111111 !
b11111111 &
1#
1%
#46100
bz !
bz &
0#
0%
#46200
b11111111 !
b11111111 &
1#
1%
#46300
bz !
bz &
0#
0%
#46400
b11111111 !
b11111111 &
1#
1%
#46500
bz !
bz &
0#
0%
#46600
b11111111 !
b11111111 &
1#
1%
#46700
bz !
bz &
0#
0%
#46800
b11111111 !
b11111111 &
1#
1%
#46900
bz !
bz &
0#
0%
#47000
b11111111 !
b11111111 &
1#
1%
#47100
bz !
bz &
0#
0%
#47200
b11111111 !
b11111111 &
1#
1%
#47300
bz !
bz &
0#
0%
#47400
b11111111 !
b11111111 &
1#
1%
#47500
bz !
bz &
0#
0%
#47600
b11111111 !
b11111111 &
1#
1%
#47700
bz !
bz &
0#
0%
#47800
b11111111 !
b11111111 &
1#
1%
#47900
bz !
bz &
0#
0%
#48000
b11111111 !
b11111111 &
1#
1%
#48100
bz !
bz &
0#
0%
#48200
b11111111 !
b11111111 &
1#
1%
#48300
bz !
bz &
0#
0%
#48400
b11111111 !
b11111111 &
1#
1%
#48500
bz !
bz &
0#
0%
#48600
b11111111 !
b11111111 &
1#
1%
#48700
bz !
bz &
0#
0%
#48800
b11111111 !
b11111111 &
1#
1%
#48900
bz !
bz &
0#
0%
#49000
b11111111 !
b11111111 &
1#
1%
#49100
bz !
bz &
0#
0%
#49200
b11111111 !
b11111111 &
1#
1%
#49300
bz !
bz &
0#
0%
#49400
b11111111 !
b11111111 &
1#
1%
#49500
bz !
bz &
0#
0%
#49600
b11111111 !
b11111111 &
1#
1%
#49700
bz !
bz &
0#
0%
#49800
b11111111 !
b11111111 &
1#
1%
#49900
bz !
bz &
0#
0%
#50000
b11111111 !
b11111111 &
1#
1%
#50100
bz !
bz &
0#
0%
#50200
b11111111 !
b11111111 &
1#
1%
#50300
bz !
bz &
0#
0%
#50400
b11111111 !
b11111111 &
1#
1%
#50500
bz !
bz &
0#
0%
#50600
b11111111 !
b11111111 &
1#
1%
#50700
bz !
bz &
0#
0%
#50800
b11111111 !
b11111111 &
1#
1%
#50900
bz !
bz &
0#
0%
#51000
b11111111 !
b11111111 &
1#
1%
#51100
bz !
bz &
0#
0%
#51200
b11111111 !
b11111111 &
1#
1%
#51300
bz !
bz &
0#
0%
#51400
b11111111 !
b11111111 &
1#
1%
#51500
bz !
bz &
0#
0%
#51600
b11111111 !
b11111111 &
1#
1%
#51700
bz !
bz &
0#
0%
#51800
b11111111 !
b11111111 &
1#
1%
#51900
bz !
bz &
0#
0%
#52000
b11111111 !
b11111111 &
1#
1%
#52100
bz !
bz &
0#
0%
#52200
b11111111 !
b11111111 &
1#
1%
#52300
bz !
bz &
0#
0%
#52400
b11111111 !
b11111111 &
1#
1%
#52500
bz !
bz &
0#
0%
#52600
b11111111 !
b11111111 &
1#
1%
#52700
bz !
bz &
0#
0%
#52800
b11111111 !
b11111111 &
1#
1%
#52900
bz !
bz &
0#
0%
#53000
b11111111 !
b11111111 &
1#
1%
#53100
bz !
bz &
0#
0%
#53200
b11111111 !
b11111111 &
1#
1%
#53300
bz !
bz &
0#
0%
#53400
b11111111 !
b11111111 &
1#
1%
#53500
bz !
bz &
0#
0%
#53600
b11111111 !
b11111111 &
1#
1%
#53700
bz !
bz &
0#
0%
#53800
b11111111 !
b11111111 &
1#
1%
#53900
bz !
bz &
0#
0%
#54000
b11111111 !
b11111111 &
1#
1%
#54100
bz !
bz &
0#
0%
#54200
b11111111 !
b11111111 &
1#
1%
#54300
bz !
bz &
0#
0%
#54400
b11111111 !
b11111111 &
1#
1%
#54500
bz !
bz &
0#
0%
#54600
b11111111 !
b11111111 &
1#
1%
#54700
bz !
bz &
0#
0%
#54800
b11111111 !
b11111111 &
1#
1%
#54900
bz !
bz &
0#
0%
#55000
b11111111 !
b11111111 &
1#
1%
#55100
bz !
bz &
0#
0%
#55200
b11111111 !
b11111111 &
1#
1%
#55300
bz !
bz &
0#
0%
#55400
b11111111 !
b11111111 &
1#
1%
#55500
bz !
bz &
0#
0%
#55600
b11111111 !
b11111111 &
1#
1%
#55700
bz !
bz &
0#
0%
#55800
b11111111 !
b11111111 &
1#
1%
#55900
bz !
bz &
0#
0%
#56000
b11111111 !
b11111111 &
1#
1%
#56100
bz !
bz &
0#
0%
#56200
b11111111 !
b11111111 &
1#
1%
#56300
bz !
bz &
0#
0%
#56400
b11111111 !
b11111111 &
1#
1%
#56500
bz !
bz &
0#
0%
#56600
b11111111 !
b11111111 &
1#
1%
#56700
bz !
bz &
0#
0%
#56800
b11111111 !
b11111111 &
1#
1%
#56900
bz !
bz &
0#
0%
#57000
b11111111 !
b11111111 &
1#
1%
#57100
bz !
bz &
0#
0%
#57200
b11111111 !
b11111111 &
1#
1%
#57300
bz !
bz &
0#
0%
#57400
b11111111 !
b11111111 &
1#
1%
#57500
bz !
bz &
0#
0%
#57600
b11111111 !
b11111111 &
1#
1%
#57700
bz !
bz &
0#
0%
#57800
b11111111 !
b11111111 &
1#
1%
#57900
bz !
bz &
0#
0%
#58000
b11111111 !
b11111111 &
1#
1%
#58100
bz !
bz &
0#
0%
#58200
b11111111 !
b11111111 &
1#
1%
#58300
bz !
bz &
0#
0%
#58400
b11111111 !
b11111111 &
1#
1%
#58500
bz !
bz &
0#
0%
#58600
b11111111 !
b11111111 &
1#
1%
#58700
bz !
bz &
0#
0%
#58800
b11111111 !
b11111111 &
1#
1%
#58900
bz !
bz &
0#
0%
#59000
b11111111 !
b11111111 &
1#
1%
#59100
bz !
bz &
0#
0%
#59200
b11111111 !
b11111111 &
1#
1%
#59300
bz !
bz &
0#
0%
#59400
b11111111 !
b11111111 &
1#
1%
#59500
bz !
bz &
0#
0%
#59600
b11111111 !
b11111111 &
1#
1%
#59700
bz !
bz &
0#
0%
#59800
b11111111 !
b11111111 &
1#
1%
#59900
bz !
bz &
0#
0%
#60000
b11111111 !
b11111111 &
1#
1%
#60100
bz !
bz &
0#
0%
#60200
b11111111 !
b11111111 &
1#
1%
#60300
bz !
bz &
0#
0%
#60400
b11111111 !
b11111111 &
1#
1%
#60500
bz !
bz &
0#
0%
#60600
b11111111 !
b11111111 &
1#
1%
#60700
bz !
bz &
0#
0%
#60800
b11111111 !
b11111111 &
1#
1%
#60900
bz !
bz &
0#
0%
#61000
b11111111 !
b11111111 &
1#
1%
#61100
bz !
bz &
0#
0%
#61200
b11111111 !
b11111111 &
1#
1%
#61300
bz !
bz &
0#
0%
#61400
b11111111 !
b11111111 &
1#
1%
#61500
bz !
bz &
0#
0%
#61600
b11111111 !
b11111111 &
1#
1%
#61700
bz !
bz &
0#
0%
#61800
b11111111 !
b11111111 &
1#
1%
#61900
bz !
bz &
0#
0%
#62000
b11111111 !
b11111111 &
1#
1%
#62100
bz !
bz &
0#
0%
#62200
b11111111 !
b11111111 &
1#
1%
#62300
bz !
bz &
0#
0%
#62400
b11111111 !
b11111111 &
1#
1%
#62500
bz !
bz &
0#
0%
#62600
b11111111 !
b11111111 &
1#
1%
#62700
bz !
bz &
0#
0%
#62800
b11111111 !
b11111111 &
1#
1%
#62900
bz !
bz &
0#
0%
#63000
b11111111 !
b11111111 &
1#
1%
#63100
bz !
bz &
0#
0%
#63200
b11111111 !
b11111111 &
1#
1%
#63300
bz !
bz &
0#
0%
#63400
b11111111 !
b11111111 &
1#
1%
#63500
bz !
bz &
0#
0%
#63600
b11111111 !
b11111111 &
1#
1%
#63700
bz !
bz &
0#
0%
#63800
b11111111 !
b11111111 &
1#
1%
#63900
bz !
bz &
0#
0%
#64000
b11111111 !
b11111111 &
1#
1%
#64100
bz !
bz &
0#
0%
#64200
b11111111 !
b11111111 &
1#
1%
#64300
bz !
bz &
0#
0%
#64400
b11111111 !
b11111111 &
1#
1%
#64500
bz !
bz &
0#
0%
#64600
b11111111 !
b11111111 &
1#
1%
#64700
bz !
bz &
0#
0%
#64800
b11111111 !
b11111111 &
1#
1%
#64900
bz !
bz &
0#
0%
#65000
b11111111 !
b11111111 &
1#
1%
#65100
bz !
bz &
0#
0%
#65200
b11111111 !
b11111111 &
1#
1%
#65300
bz !
bz &
0#
0%
#65400
b11111111 !
b11111111 &
1#
1%
#65500
bz !
bz &
0#
0%
#65600
b11111111 !
b11111111 &
1#
1%
#65700
bz !
bz &
0#
0%
#65800
b11111111 !
b11111111 &
1#
1%
#65900
bz !
bz &
0#
0%
#66000
b11111111 !
b11111111 &
1#
1%
#66100
bz !
bz &
0#
0%
#66200
b11111111 !
b11111111 &
1#
1%
#66300
bz !
bz &
0#
0%
#66400
b11111111 !
b11111111 &
1#
1%
#66500
bz !
bz &
0#
0%
#66600
b11111111 !
b11111111 &
1#
1%
#66700
bz !
bz &
0#
0%
#66800
b11111111 !
b11111111 &
1#
1%
#66900
bz !
bz &
0#
0%
#67000
b11111111 !
b11111111 &
1#
1%
#67100
bz !
bz &
0#
0%
#67200
b11111111 !
b11111111 &
1#
1%
#67300
bz !
bz &
0#
0%
#67400
b11111111 !
b11111111 &
1#
1%
#67500
bz !
bz &
0#
0%
#67600
b11111111 !
b11111111 &
1#
1%
#67700
bz !
bz &
0#
0%
#67800
b11111111 !
b11111111 &
1#
1%
#67900
bz !
bz &
0#
0%
#68000
b11111111 !
b11111111 &
1#
1%
#68100
bz !
bz &
0#
0%
#68200
b11111111 !
b11111111 &
1#
1%
#68300
bz !
bz &
0#
0%
#68400
b11111111 !
b11111111 &
1#
1%
#68500
bz !
bz &
0#
0%
#68600
b11111111 !
b11111111 &
1#
1%
#68700
bz !
bz &
0#
0%
#68800
b11111111 !
b11111111 &
1#
1%
#68900
bz !
bz &
0#
0%
#69000
b11111111 !
b11111111 &
1#
1%
#69100
bz !
bz &
0#
0%
#69200
b11111111 !
b11111111 &
1#
1%
#69300
bz !
bz &
0#
0%
#69400
b11111111 !
b11111111 &
1#
1%
#69500
bz !
bz &
0#
0%
#69600
b11111111 !
b11111111 &
1#
1%
#69700
bz !
bz &
0#
0%
#69800
b11111111 !
b11111111 &
1#
1%
#69900
bz !
bz &
0#
0%
#70000
b11111111 !
b11111111 &
1#
1%
